2ºSemestre/LSD/GuioesPraticos/Aula2/Parte2/simulation/qsim/Mux2_1Demo.msim.vcd
$comment
	File created using the following command:
		vcd file Mux2_1Demo.msim.vcd -direction
$end
$date
	Wed Feb 26 12:09:30 2020
$end
$version
	ModelSim Version 10.5b
$end
$timescale
	1ps
$end

$scope module mux2_1_vhd_vec_tst $end
$var wire 1 ! inputs [1] $end
$var wire 1 " inputs [0] $end
$var wire 1 # output $end
$var wire 1 $ selector $end

$scope module i1 $end
$var wire 1 % gnd $end
$var wire 1 & vcc $end
$var wire 1 ' unknown $end
$var wire 1 ( devoe $end
$var wire 1 ) devclrn $end
$var wire 1 * devpor $end
$var wire 1 + ww_devoe $end
$var wire 1 , ww_devclrn $end
$var wire 1 - ww_devpor $end
$var wire 1 . ww_inputs [1] $end
$var wire 1 / ww_inputs [0] $end
$var wire 1 0 ww_selector $end
$var wire 1 1 ww_output $end
$var wire 1 2 \output~output_o\ $end
$var wire 1 3 \inputs[1]~input_o\ $end
$var wire 1 4 \inputs[0]~input_o\ $end
$var wire 1 5 \selector~input_o\ $end
$var wire 1 6 \output~0_combout\ $end
$upscope $end
$upscope $end
$enddefinitions $end
#0
$dumpvars
1#
0$
0%
1&
x'
1(
1)
1*
1+
1,
1-
00
11
12
03
14
05
16
0!
1"
0.
1/
$end
#40000
1$
10
15
06
02
01
0#
#80000
0$
00
05
16
12
11
1#
#120000
1$
0"
10
0/
04
15
06
02
01
0#
#160000
1"
1!
1/
1.
13
14
16
12
11
1#
#200000
0"
0/
04
#240000
0!
0$
0.
00
05
03
06
02
01
0#
#280000
1!
1$
1"
1/
1.
10
15
13
14
16
12
11
1#
#320000
0!
0.
03
06
02
01
0#
#360000
0$
00
05
16
12
11
1#
#400000
1$
10
15
06
02
01
0#
#480000
0$
1!
00
1.
13
05
16
12
11
1#
#520000
1$
0!
0"
10
0/
0.
03
04
15
06
02
01
0#
#560000
1!
1"
1/
1.
13
14
16
12
11
1#
#640000
0!
0.
03
06
02
01
0#
#680000
1!
0$
1.
00
05
13
16
12
11
1#
#720000
0!
0.
03
#760000
0"
0/
04
06
02
01
0#
#800000
1"
1!
1/
1.
13
14
16
12
11
1#
#840000
1$
10
15
#880000
0$
0"
0!
00
0/
0.
03
04
05
06
02
01
0#
#960000
1"
1!
1/
1.
13
14
16
12
11
1#
