2ºSemestre/LSD/GuioesPraticos/Aula6/Parte1/simulation/qsim/ShiftRegister_Demo.msim.vcd
$comment
	File created using the following command:
		vcd file ShiftRegister_Demo.msim.vcd -direction
$end
$date
	Wed Apr 15 11:13:03 2020
$end
$version
	ModelSim Version 10.5b
$end
$timescale
	1ps
$end

$scope module clkdividern_vhd_vec_tst $end
$var wire 1 ! clkIn $end
$var wire 1 " clkOut $end

$scope module i1 $end
$var wire 1 # gnd $end
$var wire 1 $ vcc $end
$var wire 1 % unknown $end
$var wire 1 & devoe $end
$var wire 1 ' devclrn $end
$var wire 1 ( devpor $end
$var wire 1 ) ww_devoe $end
$var wire 1 * ww_devclrn $end
$var wire 1 + ww_devpor $end
$var wire 1 , ww_clkIn $end
$var wire 1 - ww_clkOut $end
$var wire 1 . \clkOut~output_o\ $end
$var wire 1 / \clkIn~input_o\ $end
$var wire 1 0 \s_divCounter~1_combout\ $end
$var wire 1 1 \s_divCounter~2_combout\ $end
$var wire 1 2 \s_divCounter~3_combout\ $end
$var wire 1 3 \s_divCounter~0_combout\ $end
$var wire 1 4 \LessThan0~0_combout\ $end
$var wire 1 5 \clkOut~0_combout\ $end
$var wire 1 6 \clkOut~reg0_q\ $end
$var wire 1 7 s_divCounter [3] $end
$var wire 1 8 s_divCounter [2] $end
$var wire 1 9 s_divCounter [1] $end
$var wire 1 : s_divCounter [0] $end
$upscope $end
$upscope $end
$enddefinitions $end
#0
$dumpvars
0!
0"
0#
1$
x%
1&
1'
1(
1)
1*
1+
0,
0-
0.
0/
00
01
02
13
14
05
06
07
08
09
0:
$end
#10000
1!
1,
1/
1:
10
03
04
#20000
0!
0,
0/
#30000
1!
1,
1/
19
0:
13
#40000
0!
0,
0/
#50000
1!
1,
1/
1:
00
11
03
#60000
0!
0,
0/
#70000
1!
1,
1/
09
18
0:
13
14
15
#80000
0!
0,
0/
#90000
1!
1,
1/
1:
16
10
03
04
1.
1-
1"
#100000
0!
0,
0/
#110000
1!
1,
1/
19
0:
13
#120000
0!
0,
0/
#130000
1!
1,
1/
1:
00
01
12
03
#140000
0!
0,
0/
#150000
1!
1,
1/
09
08
17
0:
05
13
14
15
#160000
0!
0,
0/
#170000
1!
1,
1/
1:
02
03
04
05
#180000
0!
0,
0/
#190000
1!
1,
1/
07
0:
06
14
13
0.
0-
0"
#200000
0!
0,
0/
#210000
1!
1,
1/
1:
10
03
04
#220000
0!
0,
0/
#230000
1!
1,
1/
19
0:
13
#240000
0!
0,
0/
#250000
1!
1,
1/
1:
00
11
03
#260000
0!
0,
0/
#270000
1!
1,
1/
09
18
0:
13
14
15
#280000
0!
0,
0/
#290000
1!
1,
1/
1:
16
10
03
04
1.
1-
1"
#300000
0!
0,
0/
#310000
1!
1,
1/
19
0:
13
#320000
0!
0,
0/
#330000
1!
1,
1/
1:
00
01
12
03
#340000
0!
0,
0/
#350000
1!
1,
1/
09
08
17
0:
05
13
14
15
#360000
0!
0,
0/
#370000
1!
1,
1/
1:
02
03
04
05
#380000
0!
0,
0/
#390000
1!
1,
1/
07
0:
06
14
13
0.
0-
0"
#400000
0!
0,
0/
#410000
1!
1,
1/
1:
10
03
04
#420000
0!
0,
0/
#430000
1!
1,
1/
19
0:
13
#440000
0!
0,
0/
#450000
1!
1,
1/
1:
00
11
03
#460000
0!
0,
0/
#470000
1!
1,
1/
09
18
0:
13
14
15
#480000
0!
0,
0/
#490000
1!
1,
1/
1:
16
10
03
04
1.
1-
1"
#500000
0!
0,
0/
#510000
1!
1,
1/
19
0:
13
#520000
0!
0,
0/
#530000
1!
1,
1/
1:
00
01
12
03
#540000
0!
0,
0/
#550000
1!
1,
1/
09
08
17
0:
05
13
14
15
#560000
0!
0,
0/
#570000
1!
1,
1/
1:
02
03
04
05
#580000
0!
0,
0/
#590000
1!
1,
1/
07
0:
06
14
13
0.
0-
0"
#600000
0!
0,
0/
#610000
1!
1,
1/
1:
10
03
04
#620000
0!
0,
0/
#630000
1!
1,
1/
19
0:
13
#640000
0!
0,
0/
#650000
1!
1,
1/
1:
00
11
03
#660000
0!
0,
0/
#670000
1!
1,
1/
09
18
0:
13
14
15
#680000
0!
0,
0/
#690000
1!
1,
1/
1:
16
10
03
04
1.
1-
1"
#700000
0!
0,
0/
#710000
1!
1,
1/
19
0:
13
#720000
0!
0,
0/
#730000
1!
1,
1/
1:
00
01
12
03
#740000
0!
0,
0/
#750000
1!
1,
1/
09
08
17
0:
05
13
14
15
#760000
0!
0,
0/
#770000
1!
1,
1/
1:
02
03
04
05
#780000
0!
0,
0/
#790000
1!
1,
1/
07
0:
06
14
13
0.
0-
0"
#800000
0!
0,
0/
#810000
1!
1,
1/
1:
10
03
04
#820000
0!
0,
0/
#830000
1!
1,
1/
19
0:
13
#840000
0!
0,
0/
#850000
1!
1,
1/
1:
00
11
03
#860000
0!
0,
0/
#870000
1!
1,
1/
09
18
0:
13
14
15
#880000
0!
0,
0/
#890000
1!
1,
1/
1:
16
10
03
04
1.
1-
1"
#900000
0!
0,
0/
#910000
1!
1,
1/
19
0:
13
#920000
0!
0,
0/
#930000
1!
1,
1/
1:
00
01
12
03
#940000
0!
0,
0/
#950000
1!
1,
1/
09
08
17
0:
05
13
14
15
#960000
0!
0,
0/
#970000
1!
1,
1/
1:
02
03
04
05
#980000
0!
0,
0/
#990000
1!
1,
1/
07
0:
06
14
13
0.
0-
0"
