LSD/GuioesPraticos/Aula5/Parte3/simulation/qsim/TimerN_Demo.msim.vcd
$comment
	File created using the following command:
		vcd file TimerN_Demo.msim.vcd -direction
$end
$date
	Wed Apr 01 12:58:09 2020
$end
$version
	ModelSim Version 10.5b
$end
$timescale
	1ps
$end

$scope module timern_vhd_vec_tst $end
$var wire 1 ! clk $end
$var wire 1 " enable $end
$var wire 1 # reset $end
$var wire 1 $ start $end
$var wire 1 % timerOut $end

$scope module i1 $end
$var wire 1 & gnd $end
$var wire 1 ' vcc $end
$var wire 1 ( unknown $end
$var wire 1 ) devoe $end
$var wire 1 * devclrn $end
$var wire 1 + devpor $end
$var wire 1 , ww_devoe $end
$var wire 1 - ww_devclrn $end
$var wire 1 . ww_devpor $end
$var wire 1 / ww_start $end
$var wire 1 0 ww_reset $end
$var wire 1 1 ww_enable $end
$var wire 1 2 ww_clk $end
$var wire 1 3 ww_timerOut $end
$var wire 1 4 \timerOut~output_o\ $end
$var wire 1 5 \clk~input_o\ $end
$var wire 1 6 \reset~input_o\ $end
$var wire 1 7 \Add0~0_combout\ $end
$var wire 1 8 \start~input_o\ $end
$var wire 1 9 \Add0~3\ $end
$var wire 1 : \Add0~5_combout\ $end
$var wire 1 ; \Add0~95_combout\ $end
$var wire 1 < \enable~input_o\ $end
$var wire 1 = \s_count[0]~1_combout\ $end
$var wire 1 > \s_count[0]~0_combout\ $end
$var wire 1 ? \Add0~94_combout\ $end
$var wire 1 @ \Add0~1\ $end
$var wire 1 A \Add0~2_combout\ $end
$var wire 1 B \Add0~4_combout\ $end
$var wire 1 C \Add0~6\ $end
$var wire 1 D \Add0~7_combout\ $end
$var wire 1 E \Add0~9_combout\ $end
$var wire 1 F \Add0~8\ $end
$var wire 1 G \Add0~10_combout\ $end
$var wire 1 H \Add0~12_combout\ $end
$var wire 1 I \Add0~11\ $end
$var wire 1 J \Add0~13_combout\ $end
$var wire 1 K \Add0~15_combout\ $end
$var wire 1 L \Equal0~0_combout\ $end
$var wire 1 M \Add0~14\ $end
$var wire 1 N \Add0~16_combout\ $end
$var wire 1 O \Add0~18_combout\ $end
$var wire 1 P \Add0~17\ $end
$var wire 1 Q \Add0~19_combout\ $end
$var wire 1 R \Add0~21_combout\ $end
$var wire 1 S \Add0~20\ $end
$var wire 1 T \Add0~22_combout\ $end
$var wire 1 U \Add0~24_combout\ $end
$var wire 1 V \Add0~23\ $end
$var wire 1 W \Add0~25_combout\ $end
$var wire 1 X \Add0~27_combout\ $end
$var wire 1 Y \Equal0~1_combout\ $end
$var wire 1 Z \Add0~26\ $end
$var wire 1 [ \Add0~28_combout\ $end
$var wire 1 \ \Add0~30_combout\ $end
$var wire 1 ] \Add0~29\ $end
$var wire 1 ^ \Add0~31_combout\ $end
$var wire 1 _ \Add0~33_combout\ $end
$var wire 1 ` \Add0~32\ $end
$var wire 1 a \Add0~34_combout\ $end
$var wire 1 b \Add0~36_combout\ $end
$var wire 1 c \Add0~35\ $end
$var wire 1 d \Add0~37_combout\ $end
$var wire 1 e \Add0~39_combout\ $end
$var wire 1 f \Equal0~2_combout\ $end
$var wire 1 g \Add0~38\ $end
$var wire 1 h \Add0~40_combout\ $end
$var wire 1 i \Add0~42_combout\ $end
$var wire 1 j \Add0~41\ $end
$var wire 1 k \Add0~43_combout\ $end
$var wire 1 l \Add0~45_combout\ $end
$var wire 1 m \Add0~44\ $end
$var wire 1 n \Add0~46_combout\ $end
$var wire 1 o \Add0~48_combout\ $end
$var wire 1 p \Add0~47\ $end
$var wire 1 q \Add0~49_combout\ $end
$var wire 1 r \Add0~51_combout\ $end
$var wire 1 s \Equal0~3_combout\ $end
$var wire 1 t \Equal0~4_combout\ $end
$var wire 1 u \Add0~50\ $end
$var wire 1 v \Add0~52_combout\ $end
$var wire 1 w \Add0~54_combout\ $end
$var wire 1 x \Add0~53\ $end
$var wire 1 y \Add0~55_combout\ $end
$var wire 1 z \Add0~57_combout\ $end
$var wire 1 { \Add0~56\ $end
$var wire 1 | \Add0~58_combout\ $end
$var wire 1 } \Add0~60_combout\ $end
$var wire 1 ~ \Add0~59\ $end
$var wire 1 !! \Add0~61_combout\ $end
$var wire 1 "! \Add0~63_combout\ $end
$var wire 1 #! \Equal0~5_combout\ $end
$var wire 1 $! \Add0~62\ $end
$var wire 1 %! \Add0~64_combout\ $end
$var wire 1 &! \Add0~66_combout\ $end
$var wire 1 '! \Add0~65\ $end
$var wire 1 (! \Add0~67_combout\ $end
$var wire 1 )! \Add0~69_combout\ $end
$var wire 1 *! \Add0~68\ $end
$var wire 1 +! \Add0~70_combout\ $end
$var wire 1 ,! \Add0~72_combout\ $end
$var wire 1 -! \Add0~71\ $end
$var wire 1 .! \Add0~73_combout\ $end
$var wire 1 /! \Add0~75_combout\ $end
$var wire 1 0! \Equal0~6_combout\ $end
$var wire 1 1! \Add0~74\ $end
$var wire 1 2! \Add0~76_combout\ $end
$var wire 1 3! \Add0~78_combout\ $end
$var wire 1 4! \Add0~77\ $end
$var wire 1 5! \Add0~79_combout\ $end
$var wire 1 6! \Add0~81_combout\ $end
$var wire 1 7! \Add0~80\ $end
$var wire 1 8! \Add0~82_combout\ $end
$var wire 1 9! \Add0~84_combout\ $end
$var wire 1 :! \Add0~83\ $end
$var wire 1 ;! \Add0~85_combout\ $end
$var wire 1 <! \Add0~87_combout\ $end
$var wire 1 =! \Equal0~7_combout\ $end
$var wire 1 >! \Add0~86\ $end
$var wire 1 ?! \Add0~88_combout\ $end
$var wire 1 @! \Add0~93_combout\ $end
$var wire 1 A! \Add0~89\ $end
$var wire 1 B! \Add0~90_combout\ $end
$var wire 1 C! \Add0~92_combout\ $end
$var wire 1 D! \Equal0~8_combout\ $end
$var wire 1 E! \Equal0~9_combout\ $end
$var wire 1 F! \timerOut~0_combout\ $end
$var wire 1 G! \timerOut~1_combout\ $end
$var wire 1 H! \timerOut~2_combout\ $end
$var wire 1 I! \timerOut~reg0_q\ $end
$var wire 1 J! s_count [31] $end
$var wire 1 K! s_count [30] $end
$var wire 1 L! s_count [29] $end
$var wire 1 M! s_count [28] $end
$var wire 1 N! s_count [27] $end
$var wire 1 O! s_count [26] $end
$var wire 1 P! s_count [25] $end
$var wire 1 Q! s_count [24] $end
$var wire 1 R! s_count [23] $end
$var wire 1 S! s_count [22] $end
$var wire 1 T! s_count [21] $end
$var wire 1 U! s_count [20] $end
$var wire 1 V! s_count [19] $end
$var wire 1 W! s_count [18] $end
$var wire 1 X! s_count [17] $end
$var wire 1 Y! s_count [16] $end
$var wire 1 Z! s_count [15] $end
$var wire 1 [! s_count [14] $end
$var wire 1 \! s_count [13] $end
$var wire 1 ]! s_count [12] $end
$var wire 1 ^! s_count [11] $end
$var wire 1 _! s_count [10] $end
$var wire 1 `! s_count [9] $end
$var wire 1 a! s_count [8] $end
$var wire 1 b! s_count [7] $end
$var wire 1 c! s_count [6] $end
$var wire 1 d! s_count [5] $end
$var wire 1 e! s_count [4] $end
$var wire 1 f! s_count [3] $end
$var wire 1 g! s_count [2] $end
$var wire 1 h! s_count [1] $end
$var wire 1 i! s_count [0] $end
$upscope $end
$upscope $end
$enddefinitions $end
#0
$dumpvars
0!
0"
1#
0$
0%
0&
1'
x(
1)
1*
1+
1,
1-
1.
0/
10
01
02
03
04
05
16
07
08
19
0:
0;
0<
1=
1>
1?
1@
1A
0B
0C
0D
0E
1F
0G
0H
0I
0J
0K
1L
1M
0N
0O
0P
0Q
0R
1S
0T
0U
0V
0W
0X
1Y
1Z
0[
0\
0]
0^
0_
1`
0a
0b
0c
0d
0e
1f
1g
0h
0i
0j
0k
0l
1m
0n
0o
0p
0q
0r
1s
1t
1u
0v
0w
0x
0y
0z
1{
0|
0}
0~
0!!
0"!
1#!
1$!
0%!
0&!
0'!
0(!
0)!
1*!
0+!
0,!
0-!
0.!
0/!
10!
11!
02!
03!
04!
05!
06!
17!
08!
09!
0:!
0;!
0<!
1=!
1>!
0?!
0@!
0A!
1B!
1C!
0D!
0E!
0F!
0G!
0H!
0I!
0J!
0K!
0L!
0M!
0N!
0O!
0P!
0Q!
0R!
0S!
0T!
0U!
0V!
0W!
0X!
0Y!
0Z!
0[!
0\!
0]!
0^!
0_!
0`!
0a!
0b!
0c!
0d!
0e!
0f!
0g!
0h!
0i!
$end
#10000
1!
12
15
1i!
1J!
0B!
1D!
17
0@
0A
1E!
0>
#20000
0!
02
05
#30000
1!
12
15
#40000
0!
0#
1"
02
00
11
1<
06
05
1G!
1H!
0H!
#50000
1!
12
15
#60000
0!
02
05
#70000
1!
12
15
#80000
0!
1$
02
1/
18
05
1>
0?
#90000
1!
12
15
0i!
07
1@
0G!
1H!
1A
1?
1B
#100000
0!
02
05
#110000
1!
12
15
1i!
1h!
1I!
1F!
0A
09
0L
17
0@
1G!
0H!
1A
19
0?
0t
1:
0B
0G!
14
1H!
1;
0E!
0:
1B
13
1%
0;
#120000
0!
02
05
#130000
1!
12
15
0i!
07
1@
0A
09
1?
1:
0B
1;
#140000
0!
0$
02
0/
08
05
0F!
#150000
1!
12
15
1g!
1i!
0h!
1A
19
1L
17
0@
0:
1C
1D
0;
0A
0?
1t
1:
0C
1B
0D
1;
1E!
0B
1E
0E
#160000
0!
02
05
#170000
1!
12
15
0i!
07
1@
0>
1G!
0H!
0;
1A
1?
#180000
0!
02
05
#190000
1!
12
15
0g!
1i!
0I!
17
0@
0:
0A
04
03
0%
#200000
0!
02
05
#210000
1!
12
15
#220000
0!
02
05
#230000
1!
12
15
#240000
0!
02
05
#250000
1!
12
15
#260000
0!
02
05
#270000
1!
12
15
#280000
0!
02
05
#290000
1!
12
15
#300000
0!
1$
02
1/
18
05
1>
0?
#310000
1!
12
15
0i!
07
1@
0G!
1H!
1A
1?
1B
#320000
0!
02
05
#330000
1!
12
15
1i!
1h!
1I!
1F!
0A
09
0L
17
0@
1G!
0H!
1A
19
0?
0t
1:
0B
0G!
14
1H!
1;
0E!
0:
1B
13
1%
0;
#340000
0!
0$
02
0/
08
05
0F!
1G!
#350000
1!
12
15
0i!
07
1@
0G!
0A
09
1?
1:
0B
1;
#360000
0!
02
05
#370000
1!
12
15
1g!
1i!
0h!
1A
19
1L
17
0@
0:
1C
1D
0;
0A
0?
1t
1:
0C
1B
0D
1;
1E!
0B
1E
0E
#380000
0!
02
05
#390000
1!
12
15
0i!
07
1@
0>
1G!
0H!
0;
1A
1?
#400000
0!
02
05
#410000
1!
12
15
0g!
1i!
0I!
17
0@
0:
0A
04
03
0%
#420000
0!
02
05
#430000
1!
12
15
#440000
0!
0"
02
01
0<
05
0=
0G!
1H!
0H!
#450000
1!
12
15
#460000
0!
02
05
#470000
1!
12
15
#480000
0!
02
05
#490000
1!
12
15
#500000
0!
02
05
#510000
1!
12
15
#520000
0!
02
05
#530000
1!
12
15
#540000
0!
02
05
#550000
1!
1"
12
11
1<
15
1=
1G!
1H!
0H!
#560000
0!
02
05
#570000
1!
12
15
#580000
0!
02
05
#590000
1!
12
15
#600000
0!
02
05
#610000
1!
12
15
#620000
0!
02
05
#630000
1!
12
15
#640000
0!
02
05
#650000
1!
12
15
#660000
0!
02
05
#670000
1!
12
15
#680000
0!
02
05
#690000
1!
12
15
#700000
0!
02
05
#710000
1!
12
15
#720000
0!
02
05
#730000
1!
12
15
#740000
0!
02
05
#750000
1!
12
15
#760000
0!
1$
02
1/
18
05
1>
0?
#770000
1!
12
15
0i!
07
1@
0G!
1H!
1A
1?
1B
#780000
0!
02
05
#790000
1!
12
15
1i!
1h!
1I!
1F!
0A
09
0L
17
0@
1G!
0H!
1A
19
0?
0t
1:
0B
0G!
14
1H!
1;
0E!
0:
1B
13
1%
0;
#800000
0!
0$
02
0/
08
05
0F!
1G!
#810000
1!
12
15
0i!
07
1@
0G!
0A
09
1?
1:
0B
1;
#820000
0!
02
05
#830000
1!
12
15
1g!
1i!
0h!
1A
19
1L
17
0@
0:
1C
1D
0;
0A
0?
1t
1:
0C
1B
0D
1;
1E!
0B
1E
0E
#840000
0!
02
05
#850000
1!
12
15
0i!
07
1@
0>
1G!
0H!
0;
1A
1?
#860000
0!
02
05
#870000
1!
12
15
0g!
1i!
0I!
17
0@
0:
0A
04
03
0%
#880000
0!
02
05
#890000
1!
12
15
#900000
0!
02
05
#910000
1!
12
15
#920000
0!
02
05
#930000
1!
12
15
#940000
0!
0"
02
01
0<
05
0=
0G!
1H!
0H!
#950000
1!
12
15
#960000
0!
02
05
#970000
1!
12
15
#980000
0!
02
05
#990000
1!
12
15
